{
    "feed": [
        {
            "id": 1,
            "name": "Cristian Onescu",
            "image": "https://scontent-fra3-1.xx.fbcdn.net/hphotos-xfa1/v/t1.0-9/11350574_1447274442251806_5608816878889561848_n.jpg?oh=ec20a2fd06387d44e50a88ac6f6eea67&oe=55CEEE40",
            "status": "Autobaza ce gaseste in frigider ?!",
            "profilePic": "http://192.168.1.114/android_profilepics/defaultuserpic.jpg",
            "timeStamp": "1403375851930",
            "url": null
        },
        {
            "id": 2,
            "name": "Razvan Chiliban",
            "image": "https://scontent-fra3-1.xx.fbcdn.net/hphotos-xpt1/v/t1.0-9/11351278_631537460279870_427592729886919709_n.jpg?oh=573cc50cfdbdf613cef2342edb810034&oe=56082E60",
            "status": "Puteţi sa-mi daţi o parere?",
            "profilePic": "http://192.168.1.114/android_profilepics/defaultuserpic.jpg",
            "timeStamp": "1403375851930",
            "url": ""
        },
        {
            "id": 5,
            "name": "Cristian Onescu",
            "image": "https://scontent-fra3-1.xx.fbcdn.net/hphotos-xta1/v/t1.0-9/11265630_1450896055209322_1795513064401271472_n.jpg?oh=439ea3e6a9e0a1821bea6bfed6c3b802&oe=560D7277",
            "status": "De vanzare",
            "profilePic": "http://192.168.1.114/android_profilepics/defaultuserpic.jpg",
            "timeStamp": "1403375851930",
            "url": null
        },
        {
            "id": 3,
            "name": "Oprea Sergiu",
            "image": "https://scontent-fra3-1.xx.fbcdn.net/hphotos-xta1/v/t1.0-9/11351228_887443764646702_7865707129267882983_n.jpg?oh=3c0b81687500efa30f1b1ed2a2537855&oe=55F78475",
            "status": "Foarte bine lucrat bub.",
            "profilePic": "http://192.168.1.114/android_profilepics/defaultuserpic.jpg",
            "timeStamp": "1403375851930",
            "url": ""
        },
        {
            "id": 4,
            "name": "Oprea Sergiu",
            "image": null,
            "status": "Marti ,26.05 ..merge cineva spre severin?",
            "profilePic": "http://192.168.1.114/android_profilepics/defaultuserpic.jpg",
            "timeStamp": "1403375851930",
            "url": ""
        },
        {
            "id": 6,
            "name": "Chiliban Razvan",
            "image": "https://fbcdn-sphotos-h-a.akamaihd.net/hphotos-ak-xfp1/t31.0-8/11233583_900964589946361_7876551956059984296_o.jpg",
            "status": "Profesor Emerit David Crystal, membru al Academiei Britanice, lingvist renumit, autor și co-autor a peste 120 de cărți de specialitate, primește astăzi titlul de Doctor Honoris Causa Litterarum Humaniorum al UVT.",
            "profilePic": "http://192.168.1.114/android_profilepics/defaultuserpic.jpg",
            "timeStamp": "1403375851930",
            "url": ""
        },
        {
            "id": 7,
            "name": "Oprea Sergiu",
            "image": "https://fbcdn-sphotos-c-a.akamaihd.net/hphotos-ak-xta1/v/t1.0-9/q82/s480x480/11351327_466600716824981_6607096382962402787_n.jpg?oh=770adda8208c71c6da7b2857b2909950&oe=55FBBBC5&__gda__=1438929144_20cd60a700cde3de476b84245df6721b",
            "status": "Am mâncat un brownie foarte mare din tomberon, man și mă simt foarte ciudat. Și m-au avertizat toți că ciocolata e toxică...",
            "profilePic": "http://192.168.1.114/android_profilepics/defaultuserpic.jpg",
            "timeStamp": "1403375851930",
            "url": ""
        },
        {
            "id": 8,
            "name": "Cristian Onescu",
            "image": "https://scontent-fra3-1.xx.fbcdn.net/hphotos-xtp1/v/t1.0-9/11137143_10153528780151840_6870597638931084794_n.jpg?oh=48d7a23f8248d7366cf937f630f5192c&oe=55CC328E",
            "status": "We call it business.",
            "profilePic": "http://192.168.1.114/android_profilepics/defaultuserpic.jpg",
            "timeStamp": "1403375851930",
            "url": "http://9gag.com/gag/abywWdp?ref=fbp"
        },
        {
            "id": 8,
            "name": "Cristian Onescu",
            "image": null,
            "status": "he still going strong :))",
            "profilePic": "http://192.168.1.114/android_profilepics/defaultuserpic.jpg",
            "timeStamp": "1403375851930",
            "url": "https://www.youtube.com/watch?v=1URvDyzh8uI"
        },
        {
            "id": 9,
            "name": "Cristian Onescu",
            "image": null,
            "status": "TEMA: Fiecare grupa alege dezvoltarea unei aplicatii informatice cu baze de date pentru o tematica propusa de membrii grupei. Limbajul in care se face dezvoltarea aplicatiei si limbajul de gestiune a bazei de date sunt stabilite de catre fiecare grupa in parte. Realizarea fiecarui proiect se planifica si se realizeaza pe parcursul a 8 saptamani, conform anexelor atasate. Documentatia proiectului se tipareste. Nici o implementare software nu este valabila fara documentatia solicitata. Termen de realizare: 28 mai 2015",
            "profilePic": "http://192.168.1.114/android_profilepics/defaultuserpic.jpg",
            "timeStamp": "1403375851930",
            "url": ""
        },
        {
            "id": 10,
            "name": "Oprea Sergiu",
            "image": null,
            "status": "Din cauza cenzurii de proasta calitate de la postul TV Atmomic, am crezut pana la varsta de 16 ani ca totul in cartier se bazeaza pe oaie.",
            "profilePic": "http://192.168.1.114/android_profilepics/defaultuserpic.jpg",
            "timeStamp": "1403375851930",
            "url": ""
        },
        {
            "id": 11,
            "name": "Chiliban Razvan",
            "image": null,
            "status": "Plecare Targu-Jiu -Timisoara ,sambata ,ora 09:00, 3 locuri libere !",
            "profilePic": "http://192.168.1.114/android_profilepics/defaultuserpic.jpg",
            "timeStamp": "1403375851930",
            "url": ""
        }
    ]
}